{
 "name": "Wails Vue Sample",
 "description": "Wails sample with Vue frontend",
 "author": {
  "name": "Max",
  "email": "maxim@mxmz.net"
 },
 "version": "0.1.0",
 "binaryname": "wails-vue-sample",
 "frontend": {
  "dir": "frontend",
  "install": "npm install",
  "build": "npm run build",
  "bridge": "src",
  "serve": "npm run serve"
 },
 "WailsVersion": "",
 "CrossCompile": false,
 "Platform": "",
 "Architecture": "",
 "LdFlags": ""
}